VHDL CODE/4-Bit Serial-In Parallel-Out Schieberegister/schieberegister_results.vcd
$date
  Thu May 08 16:42:29 2025
$end
$version
  GHDL v0
$end
$timescale
  1 fs
$end
$var reg 1 ! data $end
$var reg 1 " clock $end
$var reg 1 # output $end
$var reg 1 $ clear $end
$scope module schieberegister $end
$var reg 1 % input_data $end
$var reg 1 & clk $end
$var reg 1 ' clear $end
$var reg 1 ( q3 $end
$var reg 1 ) q0 $end
$var reg 1 * q1 $end
$var reg 1 + q2 $end
$scope module ff0 $end
$var reg 1 , d $end
$var reg 1 - clk $end
$var reg 1 . clear $end
$var reg 1 / q $end
$var reg 1 0 notq $end
$upscope $end
$scope module ff1 $end
$var reg 1 1 d $end
$var reg 1 2 clk $end
$var reg 1 3 clear $end
$var reg 1 4 q $end
$var reg 1 5 notq $end
$upscope $end
$scope module ff2 $end
$var reg 1 6 d $end
$var reg 1 7 clk $end
$var reg 1 8 clear $end
$var reg 1 9 q $end
$var reg 1 : notq $end
$upscope $end
$scope module ff3 $end
$var reg 1 ; d $end
$var reg 1 < clk $end
$var reg 1 = clear $end
$var reg 1 > q $end
$var reg 1 ? notq $end
$upscope $end
$upscope $end
$enddefinitions $end
#0
X!
X"
X#
1$
X%
X&
1'
X(
X)
X*
X+
X,
X-
1.
X/
U0
X1
X2
13
X4
U5
X6
X7
18
X9
U:
X;
X<
1=
X>
U?
#1000000
0"
0$
0&
0'
0-
0.
02
03
07
08
0<
0=
#2000000
1"
1&
1-
12
17
1<
#3000000
1!
0"
1%
0&
1,
0-
02
07
0<
#4000000
1"
1&
1)
1-
1/
11
12
17
1<
#5000000
0"
0&
0-
02
07
0<
#6000000
1"
1&
1*
1-
12
14
16
17
1<
#7000000
0!
0"
0%
0&
0,
0-
02
07
0<
#8000000
1"
1&
0)
1+
1-
0/
01
12
17
19
1;
1<
#9000000
1!
0"
1%
0&
1,
0-
02
07
0<
#10000000
1"
1#
1&
1(
1)
0*
1-
1/
11
12
04
06
17
1<
1>
#11000000
0"
0&
0-
02
07
0<
#12000000
1"
1&
1*
0+
1-
12
14
16
17
09
0;
1<
#13000000
0"
0&
0-
02
07
0<
#14000000
1"
0#
1&
0(
1+
1-
12
17
19
1;
1<
0>
#15000000
0"
0&
0-
02
07
0<
#16000000
1"
1#
1&
1(
1-
12
17
1<
1>
