VHDL CODE/4-Bit Parallel-In Serial-Out Schieberegister/schieberegister_results.vcd
$date
  Thu May 08 18:14:38 2025
$end
$version
  GHDL v0
$end
$timescale
  1 fs
$end
$var reg 1 ! clock $end
$var reg 1 " output $end
$var reg 1 # control $end
$var reg 1 $ mux_in $end
$var reg 4 % data[3:0] $end
$scope module schieberegister $end
$var reg 4 & d[3:0] $end
$var reg 1 ' mux_in $end
$var reg 1 ( control $end
$var reg 1 ) clk $end
$var reg 1 * output $end
$var reg 1 + q0 $end
$var reg 1 , q1 $end
$var reg 1 - q2 $end
$var reg 1 . m0 $end
$var reg 1 / m1 $end
$var reg 1 0 m2 $end
$var reg 1 1 m3 $end
$var reg 1 2 c $end
$scope module mux0 $end
$var reg 1 3 d $end
$var reg 1 4 i $end
$var reg 1 5 control $end
$var reg 1 6 output $end
$upscope $end
$scope module ff0 $end
$var reg 1 7 d $end
$var reg 1 8 clk $end
$var reg 1 9 clear $end
$var reg 1 : q $end
$var reg 1 ; notq $end
$upscope $end
$scope module mux1 $end
$var reg 1 < d $end
$var reg 1 = i $end
$var reg 1 > control $end
$var reg 1 ? output $end
$upscope $end
$scope module ff1 $end
$var reg 1 @ d $end
$var reg 1 A clk $end
$var reg 1 B clear $end
$var reg 1 C q $end
$var reg 1 D notq $end
$upscope $end
$scope module mux2 $end
$var reg 1 E d $end
$var reg 1 F i $end
$var reg 1 G control $end
$var reg 1 H output $end
$upscope $end
$scope module ff2 $end
$var reg 1 I d $end
$var reg 1 J clk $end
$var reg 1 K clear $end
$var reg 1 L q $end
$var reg 1 M notq $end
$upscope $end
$scope module mux3 $end
$var reg 1 N d $end
$var reg 1 O i $end
$var reg 1 P control $end
$var reg 1 Q output $end
$upscope $end
$scope module ff3 $end
$var reg 1 R d $end
$var reg 1 S clk $end
$var reg 1 T clear $end
$var reg 1 U q $end
$var reg 1 V notq $end
$upscope $end
$upscope $end
$enddefinitions $end
#0
X!
U"
X#
X$
bXXXX %
bXXXX &
X'
X(
X)
U*
U+
U,
U-
X.
X/
X0
X1
02
X3
X4
X5
X6
X7
X8
09
U:
U;
X<
U=
X>
X?
X@
XA
0B
UC
UD
XE
UF
XG
XH
XI
XJ
0K
UL
UM
XN
UO
XP
XQ
XR
XS
0T
UU
UV
#1000000
0!
0#
0$
b0001 %
b0001 &
0'
0(
0)
0.
U/
U0
U1
13
04
05
06
07
08
0<
0>
U?
U@
0A
0E
0G
UH
UI
0J
0N
0P
UQ
UR
0S
#2000000
1!
1)
0+
0/
18
0:
0=
0?
0@
1A
1J
1S
#3000000
0!
1#
1(
0)
1.
00
01
15
16
17
08
1>
0A
1G
0H
0I
0J
1P
0Q
0R
0S
#4000000
1!
0"
1)
0*
1+
0,
0-
18
1:
1=
1A
0C
0F
1J
0L
0O
1S
0U
#5000000
0!
0#
0(
0)
0.
1/
05
06
07
08
0>
1?
1@
0A
0G
0J
0P
0S
#6000000
1!
1)
0+
1,
0/
10
18
0:
0=
0?
0@
1A
1C
1F
1H
1I
1J
1S
#7000000
0!
0)
08
0A
0J
0S
#8000000
1!
1)
0,
1-
00
11
18
1A
0C
0F
0H
0I
1J
1L
1O
1Q
1R
1S
#9000000
0!
0)
08
0A
0J
0S
#10000000
1!
1"
1)
1*
0-
01
18
1A
1J
0L
0O
0Q
0R
1S
1U
#11000000
0!
0)
08
0A
0J
0S
#12000000
b0100 %
b0100 &
03
1E
#13000000
1!
0"
1)
0*
18
1A
1J
1S
0U
#14000000
0!
1#
1(
0)
10
15
08
1>
0A
1G
1H
1I
0J
1P
0S
#15000000
1!
1)
1-
18
1A
1J
1L
1O
1S
#16000000
0!
0#
0(
0)
00
11
05
08
0>
0A
0G
0H
0I
0J
0P
1Q
1R
0S
#17000000
1!
1"
1)
1*
0-
01
18
1A
1J
0L
0O
0Q
0R
1S
1U
#18000000
0!
0)
08
0A
0J
0S
#19000000
1!
0"
1)
0*
18
1A
1J
1S
0U
