VHDL CODE/priodecoder.vcd
$date
  Thu Apr 10 15:03:21 2025
$end
$version
  GHDL v0
$end
$timescale
  1 fs
$end
$var reg 7 ! a[6:0] $end
$var reg 1 " r_0 $end
$var reg 1 # r_1 $end
$var reg 1 $ r_2 $end
$scope module prio_dc $end
$var reg 7 % i[6:0] $end
$var reg 1 & o_0 $end
$var reg 1 ' o_1 $end
$var reg 1 ( o_2 $end
$upscope $end
$enddefinitions $end
#0
b0000000 !
0"
0#
0$
b0000000 %
0&
0'
0(
#1000000
b0000001 !
1"
b0000001 %
1&
#2000000
b0000011 !
0"
1#
b0000011 %
0&
1'
#3000000
b0000111 !
1"
b0000111 %
1&
#4000000
b0001111 !
0"
0#
1$
b0001111 %
0&
0'
1(
#5000000
b0011111 !
1"
b0011111 %
1&
#6000000
b0111111 !
0"
1#
b0111111 %
0&
1'
#7000000
b1111111 !
1"
b1111111 %
1&
