VHDL CODE/Subtrahierer/fs_tb_results.vcd
$date
  Fri Apr 18 08:47:15 2025
$end
$version
  GHDL v0
$end
$timescale
  1 fs
$end
$var reg 1 ! a_tb $end
$var reg 1 " b_tb $end
$var reg 1 # borrow_in_tb $end
$var reg 1 $ diff_tb $end
$var reg 1 % borrow_out_tb $end
$scope module full_suctractor $end
$var reg 1 & a $end
$var reg 1 ' b $end
$var reg 1 ( borrow_in $end
$var reg 1 ) diff $end
$var reg 1 * borrow_out $end
$var reg 1 + s1 $end
$var reg 1 , s2 $end
$var reg 1 - b1 $end
$scope module hs1 $end
$var reg 1 . a $end
$var reg 1 / b $end
$var reg 1 0 diff $end
$var reg 1 1 borrow $end
$upscope $end
$scope module hs2 $end
$var reg 1 2 a $end
$var reg 1 3 b $end
$var reg 1 4 diff $end
$var reg 1 5 borrow $end
$upscope $end
$upscope $end
$enddefinitions $end
#0
X!
X"
X#
X$
X%
X&
X'
X(
X)
X*
X+
X,
X-
X.
X/
X0
X1
X2
X3
X4
X5
#1000000
0!
0"
0#
0$
0%
0&
0'
0(
0)
0*
0+
0,
0-
0.
0/
00
01
02
03
04
05
#2000000
1#
1$
1%
1(
1)
1*
1,
13
14
15
#3000000
1"
0#
1$
1'
0(
1)
1+
0,
1-
1/
10
11
12
03
14
05
#4000000
1#
0$
1(
0)
13
04
#5000000
1!
0"
0#
1$
0%
1&
0'
0(
1)
0*
0-
1.
0/
01
03
14
#6000000
1#
0$
1(
0)
13
04
#7000000
1"
0#
0$
1'
0(
0)
0+
1/
00
02
03
04
#8000000
1#
1$
1%
1(
1)
1*
1,
13
14
15
